%YAML 1.1
%TAG !u! tag:unity3d.com,2011:
--- !u!319 &31900000
AvatarMask:
  m_ObjectHideFlags: 0
  m_CorrespondingSourceObject: {fileID: 0}
  m_PrefabInstance: {fileID: 0}
  m_PrefabAsset: {fileID: 0}
  m_Name: blobmanAvatarMask
  m_Mask: 00000000000000000000000000000000000000000000000001000000000000000100000001000000010000000100000001000000
  m_Elements:
  - m_Path: 
    m_Weight: 1
  - m_Path: Character
    m_Weight: 1
  - m_Path: Character/Bind_Hips
    m_Weight: 1
  - m_Path: Character/Bind_Hips/Bind_LeftUpLeg
    m_Weight: 1
  - m_Path: Character/Bind_Hips/Bind_LeftUpLeg/Bind_LeftLeg
    m_Weight: 1
  - m_Path: Character/Bind_Hips/Bind_LeftUpLeg/Bind_LeftLeg/Bind_LeftFoot
    m_Weight: 1
  - m_Path: Character/Bind_Hips/Bind_LeftUpLeg/Bind_LeftLeg/Bind_LeftFoot/Bind_LeftToeBase
    m_Weight: 1
  - m_Path: Character/Bind_Hips/Bind_LeftUpLeg/Bind_LeftLeg/Bind_LeftFoot/Bind_LeftToeBase/Bind_LeftToe_End
    m_Weight: 1
  - m_Path: Character/Bind_Hips/Bind_LeftUpLeg/Bind_LeftLeg/Bind_LeftFoot/Bind_LeftToeBase/Bind_LeftToe_End/Bind_LeftToe_End_end
    m_Weight: 1
  - m_Path: Character/Bind_Hips/Bind_RightUpLeg
    m_Weight: 1
  - m_Path: Character/Bind_Hips/Bind_RightUpLeg/Bind_RightLeg
    m_Weight: 1
  - m_Path: Character/Bind_Hips/Bind_RightUpLeg/Bind_RightLeg/Bind_RightFoot
    m_Weight: 1
  - m_Path: Character/Bind_Hips/Bind_RightUpLeg/Bind_RightLeg/Bind_RightFoot/Bind_RightToeBase
    m_Weight: 1
  - m_Path: Character/Bind_Hips/Bind_RightUpLeg/Bind_RightLeg/Bind_RightFoot/Bind_RightToeBase/Bind_RightToe_End
    m_Weight: 1
  - m_Path: Character/Bind_Hips/Bind_RightUpLeg/Bind_RightLeg/Bind_RightFoot/Bind_RightToeBase/Bind_RightToe_End/Bind_RightToe_End_end
    m_Weight: 1
  - m_Path: Character/Bind_Hips/Bind_Spine
    m_Weight: 1
  - m_Path: Character/Bind_Hips/Bind_Spine/Bind_Spine1
    m_Weight: 1
  - m_Path: Character/Bind_Hips/Bind_Spine/Bind_Spine1/Bind_Spine2
    m_Weight: 1
  - m_Path: Character/Bind_Hips/Bind_Spine/Bind_Spine1/Bind_Spine2/Bind_LeftShoulder
    m_Weight: 1
  - m_Path: Character/Bind_Hips/Bind_Spine/Bind_Spine1/Bind_Spine2/Bind_LeftShoulder/Bind_LeftArm
    m_Weight: 1
  - m_Path: Character/Bind_Hips/Bind_Spine/Bind_Spine1/Bind_Spine2/Bind_LeftShoulder/Bind_LeftArm/Bind_LeftForeArm
    m_Weight: 1
  - m_Path: Character/Bind_Hips/Bind_Spine/Bind_Spine1/Bind_Spine2/Bind_LeftShoulder/Bind_LeftArm/Bind_LeftForeArm/Bind_LeftHand
    m_Weight: 1
  - m_Path: Character/Bind_Hips/Bind_Spine/Bind_Spine1/Bind_Spine2/Bind_LeftShoulder/Bind_LeftArm/Bind_LeftForeArm/Bind_LeftHand/Bind_LeftHandIndex1
    m_Weight: 1
  - m_Path: Character/Bind_Hips/Bind_Spine/Bind_Spine1/Bind_Spine2/Bind_LeftShoulder/Bind_LeftArm/Bind_LeftForeArm/Bind_LeftHand/Bind_LeftHandIndex1/Bind_LeftHandIndex2
    m_Weight: 1
  - m_Path: Character/Bind_Hips/Bind_Spine/Bind_Spine1/Bind_Spine2/Bind_LeftShoulder/Bind_LeftArm/Bind_LeftForeArm/Bind_LeftHand/Bind_LeftHandIndex1/Bind_LeftHandIndex2/Bind_LeftHandIndex3
    m_Weight: 1
  - m_Path: Character/Bind_Hips/Bind_Spine/Bind_Spine1/Bind_Spine2/Bind_LeftShoulder/Bind_LeftArm/Bind_LeftForeArm/Bind_LeftHand/Bind_LeftHandIndex1/Bind_LeftHandIndex2/Bind_LeftHandIndex3/Bind_LeftHandIndex4
    m_Weight: 1
  - m_Path: Character/Bind_Hips/Bind_Spine/Bind_Spine1/Bind_Spine2/Bind_LeftShoulder/Bind_LeftArm/Bind_LeftForeArm/Bind_LeftHand/Bind_LeftHandIndex1/Bind_LeftHandIndex2/Bind_LeftHandIndex3/Bind_LeftHandIndex4/Bind_LeftHandIndex4_end
    m_Weight: 1
  - m_Path: Character/Bind_Hips/Bind_Spine/Bind_Spine1/Bind_Spine2/Bind_LeftShoulder/Bind_LeftArm/Bind_LeftForeArm/Bind_LeftHand/Bind_LeftHandMiddle1
    m_Weight: 1
  - m_Path: Character/Bind_Hips/Bind_Spine/Bind_Spine1/Bind_Spine2/Bind_LeftShoulder/Bind_LeftArm/Bind_LeftForeArm/Bind_LeftHand/Bind_LeftHandMiddle1/Bind_LeftHandMiddle2
    m_Weight: 1
  - m_Path: Character/Bind_Hips/Bind_Spine/Bind_Spine1/Bind_Spine2/Bind_LeftShoulder/Bind_LeftArm/Bind_LeftForeArm/Bind_LeftHand/Bind_LeftHandMiddle1/Bind_LeftHandMiddle2/Bind_LeftHandMiddle3
    m_Weight: 1
  - m_Path: Character/Bind_Hips/Bind_Spine/Bind_Spine1/Bind_Spine2/Bind_LeftShoulder/Bind_LeftArm/Bind_LeftForeArm/Bind_LeftHand/Bind_LeftHandMiddle1/Bind_LeftHandMiddle2/Bind_LeftHandMiddle3/Bind_LeftHandMiddle4
    m_Weight: 1
  - m_Path: Character/Bind_Hips/Bind_Spine/Bind_Spine1/Bind_Spine2/Bind_LeftShoulder/Bind_LeftArm/Bind_LeftForeArm/Bind_LeftHand/Bind_LeftHandMiddle1/Bind_LeftHandMiddle2/Bind_LeftHandMiddle3/Bind_LeftHandMiddle4/Bind_LeftHandMiddle4_end
    m_Weight: 1
  - m_Path: Character/Bind_Hips/Bind_Spine/Bind_Spine1/Bind_Spine2/Bind_LeftShoulder/Bind_LeftArm/Bind_LeftForeArm/Bind_LeftHand/Bind_LeftHandPinky1
    m_Weight: 1
  - m_Path: Character/Bind_Hips/Bind_Spine/Bind_Spine1/Bind_Spine2/Bind_LeftShoulder/Bind_LeftArm/Bind_LeftForeArm/Bind_LeftHand/Bind_LeftHandPinky1/Bind_LeftHandPinky2
    m_Weight: 1
  - m_Path: Character/Bind_Hips/Bind_Spine/Bind_Spine1/Bind_Spine2/Bind_LeftShoulder/Bind_LeftArm/Bind_LeftForeArm/Bind_LeftHand/Bind_LeftHandPinky1/Bind_LeftHandPinky2/Bind_LeftHandPinky3
    m_Weight: 1
  - m_Path: Character/Bind_Hips/Bind_Spine/Bind_Spine1/Bind_Spine2/Bind_LeftShoulder/Bind_LeftArm/Bind_LeftForeArm/Bind_LeftHand/Bind_LeftHandPinky1/Bind_LeftHandPinky2/Bind_LeftHandPinky3/Bind_LeftHandPinky4
    m_Weight: 1
  - m_Path: Character/Bind_Hips/Bind_Spine/Bind_Spine1/Bind_Spine2/Bind_LeftShoulder/Bind_LeftArm/Bind_LeftForeArm/Bind_LeftHand/Bind_LeftHandPinky1/Bind_LeftHandPinky2/Bind_LeftHandPinky3/Bind_LeftHandPinky4/Bind_LeftHandPinky4_end
    m_Weight: 1
  - m_Path: Character/Bind_Hips/Bind_Spine/Bind_Spine1/Bind_Spine2/Bind_LeftShoulder/Bind_LeftArm/Bind_LeftForeArm/Bind_LeftHand/Bind_LeftHandRing1
    m_Weight: 1
  - m_Path: Character/Bind_Hips/Bind_Spine/Bind_Spine1/Bind_Spine2/Bind_LeftShoulder/Bind_LeftArm/Bind_LeftForeArm/Bind_LeftHand/Bind_LeftHandRing1/Bind_LeftHandRing2
    m_Weight: 1
  - m_Path: Character/Bind_Hips/Bind_Spine/Bind_Spine1/Bind_Spine2/Bind_LeftShoulder/Bind_LeftArm/Bind_LeftForeArm/Bind_LeftHand/Bind_LeftHandRing1/Bind_LeftHandRing2/Bind_LeftHandRing3
    m_Weight: 1
  - m_Path: Character/Bind_Hips/Bind_Spine/Bind_Spine1/Bind_Spine2/Bind_LeftShoulder/Bind_LeftArm/Bind_LeftForeArm/Bind_LeftHand/Bind_LeftHandRing1/Bind_LeftHandRing2/Bind_LeftHandRing3/Bind_LeftHandRing4
    m_Weight: 1
  - m_Path: Character/Bind_Hips/Bind_Spine/Bind_Spine1/Bind_Spine2/Bind_LeftShoulder/Bind_LeftArm/Bind_LeftForeArm/Bind_LeftHand/Bind_LeftHandRing1/Bind_LeftHandRing2/Bind_LeftHandRing3/Bind_LeftHandRing4/Bind_LeftHandRing4_end
    m_Weight: 1
  - m_Path: Character/Bind_Hips/Bind_Spine/Bind_Spine1/Bind_Spine2/Bind_LeftShoulder/Bind_LeftArm/Bind_LeftForeArm/Bind_LeftHand/Bind_LeftHandThumb1
    m_Weight: 1
  - m_Path: Character/Bind_Hips/Bind_Spine/Bind_Spine1/Bind_Spine2/Bind_LeftShoulder/Bind_LeftArm/Bind_LeftForeArm/Bind_LeftHand/Bind_LeftHandThumb1/Bind_LeftHandThumb2
    m_Weight: 1
  - m_Path: Character/Bind_Hips/Bind_Spine/Bind_Spine1/Bind_Spine2/Bind_LeftShoulder/Bind_LeftArm/Bind_LeftForeArm/Bind_LeftHand/Bind_LeftHandThumb1/Bind_LeftHandThumb2/Bind_LeftHandThumb3
    m_Weight: 1
  - m_Path: Character/Bind_Hips/Bind_Spine/Bind_Spine1/Bind_Spine2/Bind_LeftShoulder/Bind_LeftArm/Bind_LeftForeArm/Bind_LeftHand/Bind_LeftHandThumb1/Bind_LeftHandThumb2/Bind_LeftHandThumb3/Bind_LeftHandThumb4
    m_Weight: 1
  - m_Path: Character/Bind_Hips/Bind_Spine/Bind_Spine1/Bind_Spine2/Bind_LeftShoulder/Bind_LeftArm/Bind_LeftForeArm/Bind_LeftHand/Bind_LeftHandThumb1/Bind_LeftHandThumb2/Bind_LeftHandThumb3/Bind_LeftHandThumb4/Bind_LeftHandThumb4_end
    m_Weight: 1
  - m_Path: Character/Bind_Hips/Bind_Spine/Bind_Spine1/Bind_Spine2/Bind_Neck
    m_Weight: 1
  - m_Path: Character/Bind_Hips/Bind_Spine/Bind_Spine1/Bind_Spine2/Bind_Neck/Bind_Head
    m_Weight: 1
  - m_Path: Character/Bind_Hips/Bind_Spine/Bind_Spine1/Bind_Spine2/Bind_Neck/Bind_Head/Bind_HeadTop_End
    m_Weight: 1
  - m_Path: Character/Bind_Hips/Bind_Spine/Bind_Spine1/Bind_Spine2/Bind_Neck/Bind_Head/Bind_HeadTop_End/Bind_HeadTop_End_end
    m_Weight: 1
  - m_Path: Character/Bind_Hips/Bind_Spine/Bind_Spine1/Bind_Spine2/Bind_RightShoulder
    m_Weight: 1
  - m_Path: Character/Bind_Hips/Bind_Spine/Bind_Spine1/Bind_Spine2/Bind_RightShoulder/Bind_RightArm
    m_Weight: 1
  - m_Path: Character/Bind_Hips/Bind_Spine/Bind_Spine1/Bind_Spine2/Bind_RightShoulder/Bind_RightArm/Bind_RightForeArm
    m_Weight: 1
  - m_Path: Character/Bind_Hips/Bind_Spine/Bind_Spine1/Bind_Spine2/Bind_RightShoulder/Bind_RightArm/Bind_RightForeArm/Bind_RightHand
    m_Weight: 1
  - m_Path: Character/Bind_Hips/Bind_Spine/Bind_Spine1/Bind_Spine2/Bind_RightShoulder/Bind_RightArm/Bind_RightForeArm/Bind_RightHand/Bind_RightHandIndex1
    m_Weight: 1
  - m_Path: Character/Bind_Hips/Bind_Spine/Bind_Spine1/Bind_Spine2/Bind_RightShoulder/Bind_RightArm/Bind_RightForeArm/Bind_RightHand/Bind_RightHandIndex1/Bind_RightHandIndex2
    m_Weight: 1
  - m_Path: Character/Bind_Hips/Bind_Spine/Bind_Spine1/Bind_Spine2/Bind_RightShoulder/Bind_RightArm/Bind_RightForeArm/Bind_RightHand/Bind_RightHandIndex1/Bind_RightHandIndex2/Bind_RightHandIndex3
    m_Weight: 1
  - m_Path: Character/Bind_Hips/Bind_Spine/Bind_Spine1/Bind_Spine2/Bind_RightShoulder/Bind_RightArm/Bind_RightForeArm/Bind_RightHand/Bind_RightHandIndex1/Bind_RightHandIndex2/Bind_RightHandIndex3/Bind_RightHandIndex4
    m_Weight: 1
  - m_Path: Character/Bind_Hips/Bind_Spine/Bind_Spine1/Bind_Spine2/Bind_RightShoulder/Bind_RightArm/Bind_RightForeArm/Bind_RightHand/Bind_RightHandIndex1/Bind_RightHandIndex2/Bind_RightHandIndex3/Bind_RightHandIndex4/Bind_RightHandIndex4_end
    m_Weight: 1
  - m_Path: Character/Bind_Hips/Bind_Spine/Bind_Spine1/Bind_Spine2/Bind_RightShoulder/Bind_RightArm/Bind_RightForeArm/Bind_RightHand/Bind_RightHandMiddle1
    m_Weight: 1
  - m_Path: Character/Bind_Hips/Bind_Spine/Bind_Spine1/Bind_Spine2/Bind_RightShoulder/Bind_RightArm/Bind_RightForeArm/Bind_RightHand/Bind_RightHandMiddle1/Bind_RightHandMiddle2
    m_Weight: 1
  - m_Path: Character/Bind_Hips/Bind_Spine/Bind_Spine1/Bind_Spine2/Bind_RightShoulder/Bind_RightArm/Bind_RightForeArm/Bind_RightHand/Bind_RightHandMiddle1/Bind_RightHandMiddle2/Bind_RightHandMiddle3
    m_Weight: 1
  - m_Path: Character/Bind_Hips/Bind_Spine/Bind_Spine1/Bind_Spine2/Bind_RightShoulder/Bind_RightArm/Bind_RightForeArm/Bind_RightHand/Bind_RightHandMiddle1/Bind_RightHandMiddle2/Bind_RightHandMiddle3/Bind_RightHandMiddle4
    m_Weight: 1
  - m_Path: Character/Bind_Hips/Bind_Spine/Bind_Spine1/Bind_Spine2/Bind_RightShoulder/Bind_RightArm/Bind_RightForeArm/Bind_RightHand/Bind_RightHandMiddle1/Bind_RightHandMiddle2/Bind_RightHandMiddle3/Bind_RightHandMiddle4/Bind_RightHandMiddle4_end
    m_Weight: 1
  - m_Path: Character/Bind_Hips/Bind_Spine/Bind_Spine1/Bind_Spine2/Bind_RightShoulder/Bind_RightArm/Bind_RightForeArm/Bind_RightHand/Bind_RightHandPinky1
    m_Weight: 1
  - m_Path: Character/Bind_Hips/Bind_Spine/Bind_Spine1/Bind_Spine2/Bind_RightShoulder/Bind_RightArm/Bind_RightForeArm/Bind_RightHand/Bind_RightHandPinky1/Bind_RightHandPinky2
    m_Weight: 1
  - m_Path: Character/Bind_Hips/Bind_Spine/Bind_Spine1/Bind_Spine2/Bind_RightShoulder/Bind_RightArm/Bind_RightForeArm/Bind_RightHand/Bind_RightHandPinky1/Bind_RightHandPinky2/Bind_RightHandPinky3
    m_Weight: 1
  - m_Path: Character/Bind_Hips/Bind_Spine/Bind_Spine1/Bind_Spine2/Bind_RightShoulder/Bind_RightArm/Bind_RightForeArm/Bind_RightHand/Bind_RightHandPinky1/Bind_RightHandPinky2/Bind_RightHandPinky3/Bind_RightHandPinky4
    m_Weight: 1
  - m_Path: Character/Bind_Hips/Bind_Spine/Bind_Spine1/Bind_Spine2/Bind_RightShoulder/Bind_RightArm/Bind_RightForeArm/Bind_RightHand/Bind_RightHandPinky1/Bind_RightHandPinky2/Bind_RightHandPinky3/Bind_RightHandPinky4/Bind_RightHandPinky4_end
    m_Weight: 1
  - m_Path: Character/Bind_Hips/Bind_Spine/Bind_Spine1/Bind_Spine2/Bind_RightShoulder/Bind_RightArm/Bind_RightForeArm/Bind_RightHand/Bind_RightHandRing1
    m_Weight: 1
  - m_Path: Character/Bind_Hips/Bind_Spine/Bind_Spine1/Bind_Spine2/Bind_RightShoulder/Bind_RightArm/Bind_RightForeArm/Bind_RightHand/Bind_RightHandRing1/Bind_RightHandRing2
    m_Weight: 1
  - m_Path: Character/Bind_Hips/Bind_Spine/Bind_Spine1/Bind_Spine2/Bind_RightShoulder/Bind_RightArm/Bind_RightForeArm/Bind_RightHand/Bind_RightHandRing1/Bind_RightHandRing2/Bind_RightHandRing3
    m_Weight: 1
  - m_Path: Character/Bind_Hips/Bind_Spine/Bind_Spine1/Bind_Spine2/Bind_RightShoulder/Bind_RightArm/Bind_RightForeArm/Bind_RightHand/Bind_RightHandRing1/Bind_RightHandRing2/Bind_RightHandRing3/Bind_RightHandRing4
    m_Weight: 1
  - m_Path: Character/Bind_Hips/Bind_Spine/Bind_Spine1/Bind_Spine2/Bind_RightShoulder/Bind_RightArm/Bind_RightForeArm/Bind_RightHand/Bind_RightHandRing1/Bind_RightHandRing2/Bind_RightHandRing3/Bind_RightHandRing4/Bind_RightHandRing4_end
    m_Weight: 1
  - m_Path: Character/Bind_Hips/Bind_Spine/Bind_Spine1/Bind_Spine2/Bind_RightShoulder/Bind_RightArm/Bind_RightForeArm/Bind_RightHand/Bind_RightHandThumb1
    m_Weight: 1
  - m_Path: Character/Bind_Hips/Bind_Spine/Bind_Spine1/Bind_Spine2/Bind_RightShoulder/Bind_RightArm/Bind_RightForeArm/Bind_RightHand/Bind_RightHandThumb1/Bind_RightHandThumb2
    m_Weight: 1
  - m_Path: Character/Bind_Hips/Bind_Spine/Bind_Spine1/Bind_Spine2/Bind_RightShoulder/Bind_RightArm/Bind_RightForeArm/Bind_RightHand/Bind_RightHandThumb1/Bind_RightHandThumb2/Bind_RightHandThumb3
    m_Weight: 1
  - m_Path: Character/Bind_Hips/Bind_Spine/Bind_Spine1/Bind_Spine2/Bind_RightShoulder/Bind_RightArm/Bind_RightForeArm/Bind_RightHand/Bind_RightHandThumb1/Bind_RightHandThumb2/Bind_RightHandThumb3/Bind_RightHandThumb4
    m_Weight: 1
  - m_Path: Character/Bind_Hips/Bind_Spine/Bind_Spine1/Bind_Spine2/Bind_RightShoulder/Bind_RightArm/Bind_RightForeArm/Bind_RightHand/Bind_RightHandThumb1/Bind_RightHandThumb2/Bind_RightHandThumb3/Bind_RightHandThumb4/Bind_RightHandThumb4_end
    m_Weight: 1
  - m_Path: Character/Mesh_GRP
    m_Weight: 1
  - m_Path: Mesh_ThinBlob1
    m_Weight: 1
